%YAML 1.1
%TAG !u! tag:unity3d.com,2011:
--- !u!114 &11400000
MonoBehaviour:
  m_ObjectHideFlags: 0
  m_CorrespondingSourceObject: {fileID: 0}
  m_PrefabInstance: {fileID: 0}
  m_PrefabAsset: {fileID: 0}
  m_GameObject: {fileID: 0}
  m_Enabled: 1
  m_EditorHideFlags: 0
  m_Script: {fileID: 11500000, guid: 6f0f8eee6d131564eb056a2a7b16fe58, type: 3}
  m_Name: defaultOptions
  m_EditorClassIdentifier: 
  isFullscreen: 1
  height: 0
  refreshRate: 0
  width: 0
